Virtual Bootstraps
…
Creating resampled data frames

There are two core functions that help you generate a resampled_df object.

bootstrapify() takes a data frame and bootstraps the rows of that data frame a set number of times to generate the virtual groups.

iris_boot <- bootstrapify(iris, times = 10)

nrow(iris)
#> [1] 150
nrow(iris_boot)
#> [1] 150

iris_boot
#> # A tibble: 150 x 5
#> # Groups:   .bootstrap [10]
#>    Sepal.Length Sepal.Width Petal.Length Petal.Width Species
#>           <dbl>       <dbl>        <dbl>       <dbl> <fct>  
#>  1          5.1         3.5          1.4         0.2 setosa 
#>  2          4.9         3            1.4         0.2 setosa 
#>  3          4.7         3.2          1.3         0.2 setosa 
#>  4          4.6         3.1          1.5         0.2 setosa 
#>  5          5           3.6          1.4         0.2 setosa 
#>  6          5.4         3.9          1.7         0.4 setosa 
#>  7          4.6         3.4          1.4         0.3 setosa 
#>  8          5           3.4          1.5         0.2 setosa 
#>  9          4.4         2.9          1.4         0.2 setosa 
#> 10          4.9         3.1          1.5         0.1 setosa 
#> # … with 140 more rows

What you’ll immediately notice is that:

The tibble still only has 150 rows.

The tibble is now grouped by .bootstrap, which isn’t a column in the tibble.

The invisible .bootstrap column is the virtual group. It hasn’t been materialized (there are still only 150 rows, not 150 * 10 rows), but dplyr still seems to know about it.

samplify() is the other function that can generate resampled tibbles. It is a slight generalization of bootstrapify() that also allows you to specify the size of each resample, and if you want to resample with replacement or not.

iris_samp <- samplify(iris, times = 10, size = 20, replace = FALSE)

iris_samp
#> # A tibble: 150 x 5
#> # Groups:   .sample [10]
#>    Sepal.Length Sepal.Width Petal.Length Petal.Width Species
#>           <dbl>       <dbl>        <dbl>       <dbl> <fct>  
#>  1          5.1         3.5          1.4         0.2 setosa 
#>  2          4.9         3            1.4         0.2 setosa 
#>  3          4.7         3.2          1.3         0.2 setosa 
#>  4          4.6         3.1          1.5         0.2 setosa 
#>  5          5           3.6          1.4         0.2 setosa 
#>  6          5.4         3.9          1.7         0.4 setosa 
#>  7          4.6         3.4          1.4         0.3 setosa 
#>  8          5           3.4          1.5         0.2 setosa 
#>  9          4.4         2.9          1.4         0.2 setosa 
#> 10          4.9         3.1          1.5         0.1 setosa 
#> # … with 140 more rows
…
If you want, you can take an existing grouped data frame and bootstrapify that as well, allowing you to compute bootstrapped statistics across some other variable.

iris_group_strap <- iris %>%
  group_by(Species) %>%
  bootstrapify(100) 

iris_group_strap
#> # A tibble: 150 x 5
#> # Groups:   Species, .bootstrap [300]
#>    Sepal.Length Sepal.Width Petal.Length Petal.Width Species
#>           <dbl>       <dbl>        <dbl>       <dbl> <fct>  
#>  1          5.1         3.5          1.4         0.2 setosa 
#>  2          4.9         3            1.4         0.2 setosa 
#>  3          4.7         3.2          1.3         0.2 setosa 
#>  4          4.6         3.1          1.5         0.2 setosa 
#>  5          5           3.6          1.4         0.2 setosa 
#>  6          5.4         3.9          1.7         0.4 setosa 
#>  7          4.6         3.4          1.4         0.3 setosa 
#>  8          5           3.4          1.5         0.2 setosa 
#>  9          4.4         2.9          1.4         0.2 setosa 
#> 10          4.9         3.1          1.5         0.1 setosa 
#> # … with 140 more rows
…
group_data(iris_boot)$.rows[[1]]
#>   [1]  14  50 118  43  14 118  90  91  91  92 137  99  72  26   7 137  78
#>  [18]  81  43 103 117  76 143  32 109   7 137  74  23  53 135  53  34  69
#>  [35]  72  76  63 141  97  91  38  21  41  90  60  16 116  94   6  86  86
#>  [52]  39 118  50  34   4  13  69 127  52  22  89  25  35 112  30 140 121
#>  [69] 110  64 142  67 122  79  85 136  51  74 106  98  74 127  17  46  54
#>  [86] 110  94  79  24 113 107 135 102 135   5  70  16  24  32  21  55  75
#> [103]  83  39  54 137  48  77  83 111  39   1  30  94  16  88  54  20 104
#> [120]  93  52 108  22  42  59  84  11 121 136  46  85 109 107  77  36 142
#> [137]  16 125  33  40  10 125   9   7 135  61  63  54  26  33

When a call to collect() is made, this row index information is used to construct the output. Essentially, we start with the group_data() and utilize the .rows info to replicate the rows of the original data frame for each group, building up the complete resampled data frame. Notice how we now have the 150 * 10 = 1500 rows from the 10 bootstraps.

collect(iris_boot)
#> # A tibble: 1,500 x 6
#> # Groups:   .bootstrap [10]
#>    .bootstrap Sepal.Length Sepal.Width Petal.Length Petal.Width Species   
#>         <int>        <dbl>       <dbl>        <dbl>       <dbl> <fct>     
#>  1          1          4.3         3            1.1         0.1 setosa    
#>  2          1          5           3.3          1.4         0.2 setosa    
#>  3          1          7.7         3.8          6.7         2.2 virginica 
#>  4          1          4.4         3.2          1.3         0.2 setosa    
#>  5          1          4.3         3            1.1         0.1 setosa    
#>  6          1          7.7         3.8          6.7         2.2 virginica 
#>  7          1          5.5         2.5          4           1.3 versicolor
#>  8          1          5.5         2.6          4.4         1.2 versicolor
#>  9          1          5.5         2.6          4.4         1.2 versicolor
#> 10          1          6.1         3            4.6         1.4 versicolor
#> # … with 1,490 more rows
…
